DEBUG 2018-02-24 23:36:48,139 [1    ] Abp.Modules.AbpModuleManager             - Loading Abp modules...
DEBUG 2018-02-24 23:36:48,225 [1    ] Abp.Modules.AbpModuleManager             - Found 15 ABP modules in total.
DEBUG 2018-02-24 23:36:48,240 [1    ] Abp.Modules.AbpModuleManager             - Loaded module: Kate.Web.Host.Startup.KateWebHostModule, Kate.Web.Host, Version=1.0.0.0, Culture=neutral, PublicKeyToken=null
DEBUG 2018-02-24 23:36:48,244 [1    ] Abp.Modules.AbpModuleManager             - Loaded module: Kate.KateWebCoreModule, Kate.Web.Core, Version=1.0.0.0, Culture=neutral, PublicKeyToken=null
DEBUG 2018-02-24 23:36:48,244 [1    ] Abp.Modules.AbpModuleManager             - Loaded module: Kate.KateApplicationModule, Kate.Application, Version=1.0.0.0, Culture=neutral, PublicKeyToken=null
DEBUG 2018-02-24 23:36:48,245 [1    ] Abp.Modules.AbpModuleManager             - Loaded module: Kate.KateCoreModule, Kate.Core, Version=1.0.0.0, Culture=neutral, PublicKeyToken=null
DEBUG 2018-02-24 23:36:48,245 [1    ] Abp.Modules.AbpModuleManager             - Loaded module: Abp.Zero.AbpZeroCoreModule, Abp.ZeroCore, Version=3.4.0.0, Culture=neutral, PublicKeyToken=null
DEBUG 2018-02-24 23:36:48,245 [1    ] Abp.Modules.AbpModuleManager             - Loaded module: Abp.Zero.AbpZeroCommonModule, Abp.Zero.Common, Version=3.4.0.0, Culture=neutral, PublicKeyToken=null
DEBUG 2018-02-24 23:36:48,246 [1    ] Abp.Modules.AbpModuleManager             - Loaded module: Abp.AbpKernelModule, Abp, Version=3.4.0.0, Culture=neutral, PublicKeyToken=null
DEBUG 2018-02-24 23:36:48,246 [1    ] Abp.Modules.AbpModuleManager             - Loaded module: Abp.AutoMapper.AbpAutoMapperModule, Abp.AutoMapper, Version=3.4.0.0, Culture=neutral, PublicKeyToken=null
DEBUG 2018-02-24 23:36:48,247 [1    ] Abp.Modules.AbpModuleManager             - Loaded module: Kate.EntityFrameworkCore.KateEntityFrameworkModule, Kate.EntityFrameworkCore, Version=1.0.0.0, Culture=neutral, PublicKeyToken=null
DEBUG 2018-02-24 23:36:48,247 [1    ] Abp.Modules.AbpModuleManager             - Loaded module: Abp.Zero.EntityFrameworkCore.AbpZeroCoreEntityFrameworkCoreModule, Abp.ZeroCore.EntityFrameworkCore, Version=3.4.0.0, Culture=neutral, PublicKeyToken=null
DEBUG 2018-02-24 23:36:48,247 [1    ] Abp.Modules.AbpModuleManager             - Loaded module: Abp.EntityFrameworkCore.AbpEntityFrameworkCoreModule, Abp.EntityFrameworkCore, Version=3.4.0.0, Culture=neutral, PublicKeyToken=null
DEBUG 2018-02-24 23:36:48,247 [1    ] Abp.Modules.AbpModuleManager             - Loaded module: Abp.EntityFramework.AbpEntityFrameworkCommonModule, Abp.EntityFramework.Common, Version=3.4.0.0, Culture=neutral, PublicKeyToken=null
DEBUG 2018-02-24 23:36:48,248 [1    ] Abp.Modules.AbpModuleManager             - Loaded module: Abp.AspNetCore.AbpAspNetCoreModule, Abp.AspNetCore, Version=3.4.0.0, Culture=neutral, PublicKeyToken=null
DEBUG 2018-02-24 23:36:48,248 [1    ] Abp.Modules.AbpModuleManager             - Loaded module: Abp.Web.AbpWebCommonModule, Abp.Web.Common, Version=3.4.0.0, Culture=neutral, PublicKeyToken=null
DEBUG 2018-02-24 23:36:48,248 [1    ] Abp.Modules.AbpModuleManager             - Loaded module: Abp.AspNetCore.SignalR.AbpAspNetCoreSignalRModule, Abp.AspNetCore.SignalR, Version=3.4.0.0, Culture=neutral, PublicKeyToken=null
DEBUG 2018-02-24 23:36:48,251 [1    ] Abp.Modules.AbpModuleManager             - 15 modules loaded.
DEBUG 2018-02-24 23:36:48,325 [1    ] o.Configuration.LanguageManagementConfig - Converted Abp (Abp.Localization.Dictionaries.DictionaryBasedLocalizationSource) to MultiTenantLocalizationSource
DEBUG 2018-02-24 23:36:48,325 [1    ] o.Configuration.LanguageManagementConfig - Converted AbpZero (Abp.Localization.Dictionaries.DictionaryBasedLocalizationSource) to MultiTenantLocalizationSource
DEBUG 2018-02-24 23:36:48,325 [1    ] o.Configuration.LanguageManagementConfig - Converted Kate (Abp.Localization.Dictionaries.DictionaryBasedLocalizationSource) to MultiTenantLocalizationSource
DEBUG 2018-02-24 23:36:48,325 [1    ] o.Configuration.LanguageManagementConfig - Converted AbpWeb (Abp.Localization.Dictionaries.DictionaryBasedLocalizationSource) to MultiTenantLocalizationSource
DEBUG 2018-02-24 23:36:48,611 [1    ] ameworkCore.AbpEntityFrameworkCoreModule - Registering DbContext: Kate.EntityFrameworkCore.KateDbContext, Kate.EntityFrameworkCore, Version=1.0.0.0, Culture=neutral, PublicKeyToken=null
DEBUG 2018-02-24 23:36:49,509 [1    ] Abp.Localization.LocalizationManager     - Initializing 4 localization sources.
DEBUG 2018-02-24 23:36:49,520 [1    ] Abp.Localization.LocalizationManager     - Initialized localization source: Abp
DEBUG 2018-02-24 23:36:49,526 [1    ] Abp.Localization.LocalizationManager     - Initialized localization source: AbpZero
DEBUG 2018-02-24 23:36:49,529 [1    ] Abp.Localization.LocalizationManager     - Initialized localization source: Kate
DEBUG 2018-02-24 23:36:49,530 [1    ] Abp.Localization.LocalizationManager     - Initialized localization source: AbpWeb
DEBUG 2018-02-24 23:36:49,689 [1    ] Abp.BackgroundJobs.BackgroundJobManager  - Start background worker: Abp.BackgroundJobs.BackgroundJobManager
DEBUG 2018-02-24 23:36:49,743 [1    ] Abp.AutoMapper.AbpAutoMapperModule       - Found 10 classes define auto mapping attributes
DEBUG 2018-02-24 23:36:49,743 [1    ] Abp.AutoMapper.AbpAutoMapperModule       - Kate.Models.TokenAuth.ExternalLoginProviderInfoModel
DEBUG 2018-02-24 23:36:49,747 [1    ] Abp.AutoMapper.AbpAutoMapperModule       - Kate.Users.Dto.CreateUserDto
DEBUG 2018-02-24 23:36:49,748 [1    ] Abp.AutoMapper.AbpAutoMapperModule       - Kate.Users.Dto.UserDto
DEBUG 2018-02-24 23:36:49,748 [1    ] Abp.AutoMapper.AbpAutoMapperModule       - Kate.Sessions.Dto.TenantLoginInfoDto
DEBUG 2018-02-24 23:36:49,748 [1    ] Abp.AutoMapper.AbpAutoMapperModule       - Kate.Sessions.Dto.UserLoginInfoDto
DEBUG 2018-02-24 23:36:49,748 [1    ] Abp.AutoMapper.AbpAutoMapperModule       - Kate.Roles.Dto.CreateRoleDto
DEBUG 2018-02-24 23:36:49,748 [1    ] Abp.AutoMapper.AbpAutoMapperModule       - Kate.Roles.Dto.PermissionDto
DEBUG 2018-02-24 23:36:49,748 [1    ] Abp.AutoMapper.AbpAutoMapperModule       - Kate.Roles.Dto.RoleDto
DEBUG 2018-02-24 23:36:49,749 [1    ] Abp.AutoMapper.AbpAutoMapperModule       - Kate.MultiTenancy.Dto.CreateTenantDto
DEBUG 2018-02-24 23:36:49,749 [1    ] Abp.AutoMapper.AbpAutoMapperModule       - Kate.MultiTenancy.Dto.TenantDto
INFO  2018-02-24 23:36:52,783 [5    ] soft.AspNetCore.Hosting.Internal.WebHost - Request starting HTTP/1.1 GET http://localhost:21021/  
INFO  2018-02-24 23:36:56,918 [5    ] ore.Mvc.Internal.ControllerActionInvoker - Executing action method Kate.Web.Host.Controllers.HomeController.Index (Kate.Web.Host) with arguments ((null)) - ModelState is Valid
INFO  2018-02-24 23:36:57,061 [6    ] Core.Mvc.Internal.RedirectResultExecutor - Executing RedirectResult, redirecting to /swagger.
INFO  2018-02-24 23:36:57,077 [6    ] ore.Mvc.Internal.ControllerActionInvoker - Executed action Kate.Web.Host.Controllers.HomeController.Index (Kate.Web.Host) in 1092.4892ms
INFO  2018-02-24 23:36:57,094 [6    ] soft.AspNetCore.Hosting.Internal.WebHost - Request finished in 4349.0878ms 302 
INFO  2018-02-24 23:36:57,110 [6    ] soft.AspNetCore.Hosting.Internal.WebHost - Request starting HTTP/1.1 GET http://localhost:21021/swagger  
INFO  2018-02-24 23:36:57,125 [6    ] soft.AspNetCore.Hosting.Internal.WebHost - Request finished in 15.2617ms 301 
INFO  2018-02-24 23:36:57,132 [6    ] soft.AspNetCore.Hosting.Internal.WebHost - Request starting HTTP/1.1 GET http://localhost:21021/swagger/  
INFO  2018-02-24 23:36:57,176 [6    ] NetCore.StaticFiles.StaticFileMiddleware - Sending file. Request path: '/index.html'. Physical path: 'N/A'
INFO  2018-02-24 23:36:57,188 [6    ] soft.AspNetCore.Hosting.Internal.WebHost - Request finished in 55.9723ms 200 text/html
INFO  2018-02-24 23:36:57,201 [13   ] soft.AspNetCore.Hosting.Internal.WebHost - Request starting HTTP/1.1 GET http://localhost:21021/swagger/css/typography.css  
INFO  2018-02-24 23:36:57,215 [16   ] soft.AspNetCore.Hosting.Internal.WebHost - Request starting HTTP/1.1 GET http://localhost:21021/swagger/lib/jquery-1.8.0.min.js  
INFO  2018-02-24 23:36:57,217 [6    ] soft.AspNetCore.Hosting.Internal.WebHost - Request starting HTTP/1.1 GET http://localhost:21021/swagger/css/reset.css  
INFO  2018-02-24 23:36:57,219 [21   ] soft.AspNetCore.Hosting.Internal.WebHost - Request starting HTTP/1.1 GET http://localhost:21021/swagger/lib/object-assign-pollyfill.js  
INFO  2018-02-24 23:36:57,223 [14   ] soft.AspNetCore.Hosting.Internal.WebHost - Request starting HTTP/1.1 GET http://localhost:21021/swagger/lib/jquery.slideto.min.js  
INFO  2018-02-24 23:36:57,225 [13   ] NetCore.StaticFiles.StaticFileMiddleware - Sending file. Request path: '/css/typography.css'. Physical path: 'N/A'
INFO  2018-02-24 23:36:57,230 [5    ] soft.AspNetCore.Hosting.Internal.WebHost - Request starting HTTP/1.1 GET http://localhost:21021/swagger/css/screen.css  
INFO  2018-02-24 23:36:57,232 [16   ] NetCore.StaticFiles.StaticFileMiddleware - Sending file. Request path: '/lib/jquery-1.8.0.min.js'. Physical path: 'N/A'
INFO  2018-02-24 23:36:57,234 [21   ] NetCore.StaticFiles.StaticFileMiddleware - Sending file. Request path: '/lib/object-assign-pollyfill.js'. Physical path: 'N/A'
INFO  2018-02-24 23:36:57,247 [21   ] soft.AspNetCore.Hosting.Internal.WebHost - Request finished in 31.512ms 200 application/javascript
INFO  2018-02-24 23:36:57,249 [14   ] NetCore.StaticFiles.StaticFileMiddleware - Sending file. Request path: '/lib/jquery.slideto.min.js'. Physical path: 'N/A'
INFO  2018-02-24 23:36:57,254 [6    ] NetCore.StaticFiles.StaticFileMiddleware - Sending file. Request path: '/css/reset.css'. Physical path: 'N/A'
INFO  2018-02-24 23:36:57,256 [13   ] soft.AspNetCore.Hosting.Internal.WebHost - Request finished in 32.677ms 200 text/css
INFO  2018-02-24 23:36:57,269 [21   ] soft.AspNetCore.Hosting.Internal.WebHost - Request starting HTTP/1.1 GET http://localhost:21021/swagger/lib/jquery.ba-bbq.min.js  
INFO  2018-02-24 23:36:57,271 [14   ] soft.AspNetCore.Hosting.Internal.WebHost - Request finished in 46.5837ms 200 application/javascript
INFO  2018-02-24 23:36:57,274 [6    ] soft.AspNetCore.Hosting.Internal.WebHost - Request finished in 53.5075ms 200 text/css
INFO  2018-02-24 23:36:57,280 [13   ] soft.AspNetCore.Hosting.Internal.WebHost - Request starting HTTP/1.1 GET http://localhost:21021/swagger/lib/jquery.wiggle.min.js  
INFO  2018-02-24 23:36:57,284 [5    ] NetCore.StaticFiles.StaticFileMiddleware - Sending file. Request path: '/css/screen.css'. Physical path: 'N/A'
INFO  2018-02-24 23:36:57,286 [21   ] NetCore.StaticFiles.StaticFileMiddleware - Sending file. Request path: '/lib/jquery.ba-bbq.min.js'. Physical path: 'N/A'
INFO  2018-02-24 23:36:57,296 [14   ] soft.AspNetCore.Hosting.Internal.WebHost - Request starting HTTP/1.1 GET http://localhost:21021/swagger/lib/handlebars-4.0.5.js  
INFO  2018-02-24 23:36:57,300 [5    ] soft.AspNetCore.Hosting.Internal.WebHost - Request finished in 84.8469ms 200 text/css
INFO  2018-02-24 23:36:57,304 [13   ] NetCore.StaticFiles.StaticFileMiddleware - Sending file. Request path: '/lib/jquery.wiggle.min.js'. Physical path: 'N/A'
INFO  2018-02-24 23:36:57,307 [21   ] soft.AspNetCore.Hosting.Internal.WebHost - Request finished in 34.0204ms 200 application/javascript
INFO  2018-02-24 23:36:57,316 [15   ] soft.AspNetCore.Hosting.Internal.WebHost - Request finished in 103.2024ms 200 application/javascript
INFO  2018-02-24 23:36:57,328 [14   ] NetCore.StaticFiles.StaticFileMiddleware - Sending file. Request path: '/lib/handlebars-4.0.5.js'. Physical path: 'N/A'
INFO  2018-02-24 23:36:57,330 [6    ] soft.AspNetCore.Hosting.Internal.WebHost - Request starting HTTP/1.1 GET http://localhost:21021/swagger/lib/lodash.min.js  
INFO  2018-02-24 23:36:57,333 [13   ] soft.AspNetCore.Hosting.Internal.WebHost - Request finished in 43.4971ms 200 application/javascript
INFO  2018-02-24 23:36:57,340 [21   ] soft.AspNetCore.Hosting.Internal.WebHost - Request starting HTTP/1.1 GET http://localhost:21021/swagger/swagger-ui.min.js  
INFO  2018-02-24 23:36:57,368 [15   ] soft.AspNetCore.Hosting.Internal.WebHost - Request starting HTTP/1.1 GET http://localhost:21021/swagger/lib/backbone-min.js  
INFO  2018-02-24 23:36:57,373 [13   ] soft.AspNetCore.Hosting.Internal.WebHost - Request starting HTTP/1.1 GET http://localhost:21021/swagger/lib/highlight.9.1.0.pack_extended.js  
INFO  2018-02-24 23:36:57,375 [21   ] NetCore.StaticFiles.StaticFileMiddleware - Sending file. Request path: '/swagger-ui.min.js'. Physical path: 'N/A'
INFO  2018-02-24 23:36:57,389 [6    ] NetCore.StaticFiles.StaticFileMiddleware - Sending file. Request path: '/lib/lodash.min.js'. Physical path: 'N/A'
INFO  2018-02-24 23:36:57,391 [14   ] soft.AspNetCore.Hosting.Internal.WebHost - Request finished in 103.552ms 200 application/javascript
INFO  2018-02-24 23:36:57,394 [15   ] NetCore.StaticFiles.StaticFileMiddleware - Sending file. Request path: '/lib/backbone-min.js'. Physical path: 'N/A'
INFO  2018-02-24 23:36:57,402 [5    ] soft.AspNetCore.Hosting.Internal.WebHost - Request starting HTTP/1.1 GET http://localhost:21021/swagger/lib/highlight.9.1.0.pack.js  
INFO  2018-02-24 23:36:57,435 [15   ] soft.AspNetCore.Hosting.Internal.WebHost - Request finished in 60.3866ms 200 application/javascript
INFO  2018-02-24 23:36:57,438 [13   ] NetCore.StaticFiles.StaticFileMiddleware - Sending file. Request path: '/lib/highlight.9.1.0.pack_extended.js'. Physical path: 'N/A'
INFO  2018-02-24 23:36:57,440 [19   ] soft.AspNetCore.Hosting.Internal.WebHost - Request finished in 88.241ms 200 application/javascript
INFO  2018-02-24 23:36:57,471 [6    ] soft.AspNetCore.Hosting.Internal.WebHost - Request finished in 100.23ms 200 application/javascript
INFO  2018-02-24 23:36:57,476 [14   ] soft.AspNetCore.Hosting.Internal.WebHost - Request starting HTTP/1.1 GET http://localhost:21021/swagger/lib/jsoneditor.min.js  
INFO  2018-02-24 23:36:57,480 [13   ] soft.AspNetCore.Hosting.Internal.WebHost - Request finished in 101.5994ms 200 application/javascript
INFO  2018-02-24 23:36:57,512 [15   ] soft.AspNetCore.Hosting.Internal.WebHost - Request starting HTTP/1.1 GET http://localhost:21021/swagger/lib/marked.js  
INFO  2018-02-24 23:36:57,514 [14   ] NetCore.StaticFiles.StaticFileMiddleware - Sending file. Request path: '/lib/jsoneditor.min.js'. Physical path: 'N/A'
INFO  2018-02-24 23:36:57,515 [5    ] NetCore.StaticFiles.StaticFileMiddleware - Sending file. Request path: '/lib/highlight.9.1.0.pack.js'. Physical path: 'N/A'
INFO  2018-02-24 23:36:57,527 [15   ] NetCore.StaticFiles.StaticFileMiddleware - Sending file. Request path: '/lib/marked.js'. Physical path: 'N/A'
INFO  2018-02-24 23:36:57,550 [5    ] soft.AspNetCore.Hosting.Internal.WebHost - Request finished in 188.8336ms 200 application/javascript
INFO  2018-02-24 23:36:57,554 [6    ] soft.AspNetCore.Hosting.Internal.WebHost - Request starting HTTP/1.1 GET http://localhost:21021/swagger/lib/swagger-oauth.js  
INFO  2018-02-24 23:36:57,563 [15   ] soft.AspNetCore.Hosting.Internal.WebHost - Request finished in 50.1439ms 200 application/javascript
INFO  2018-02-24 23:36:57,565 [13   ] soft.AspNetCore.Hosting.Internal.WebHost - Request starting HTTP/1.1 GET http://localhost:21021/swagger/images/logo_small.png  
INFO  2018-02-24 23:36:57,568 [16   ] soft.AspNetCore.Hosting.Internal.WebHost - Request finished in 123.7564ms 200 application/javascript
INFO  2018-02-24 23:36:57,596 [13   ] NetCore.StaticFiles.StaticFileMiddleware - Sending file. Request path: '/images/logo_small.png'. Physical path: 'N/A'
INFO  2018-02-24 23:36:57,599 [6    ] NetCore.StaticFiles.StaticFileMiddleware - Sending file. Request path: '/lib/swagger-oauth.js'. Physical path: 'N/A'
INFO  2018-02-24 23:36:57,606 [13   ] soft.AspNetCore.Hosting.Internal.WebHost - Request finished in 46.5198ms 200 image/png
INFO  2018-02-24 23:36:57,612 [6    ] soft.AspNetCore.Hosting.Internal.WebHost - Request finished in 80.2716ms 200 application/javascript
INFO  2018-02-24 23:36:57,614 [5    ] soft.AspNetCore.Hosting.Internal.WebHost - Request starting HTTP/1.1 GET http://localhost:21021/swagger/css/print.css  
INFO  2018-02-24 23:36:57,621 [5    ] NetCore.StaticFiles.StaticFileMiddleware - Sending file. Request path: '/css/print.css'. Physical path: 'N/A'
INFO  2018-02-24 23:36:57,627 [5    ] soft.AspNetCore.Hosting.Internal.WebHost - Request finished in 17.1377ms 200 text/css
INFO  2018-02-24 23:36:57,653 [13   ] soft.AspNetCore.Hosting.Internal.WebHost - Request starting HTTP/1.1 GET http://localhost:21021/swagger/v1/swagger.json  
INFO  2018-02-24 23:36:57,669 [5    ] soft.AspNetCore.Hosting.Internal.WebHost - Request starting HTTP/1.1 GET http://localhost:21021/swagger/images/favicon-32x32.png  
INFO  2018-02-24 23:36:57,676 [5    ] NetCore.StaticFiles.StaticFileMiddleware - Sending file. Request path: '/images/favicon-32x32.png'. Physical path: 'N/A'
INFO  2018-02-24 23:36:57,681 [5    ] soft.AspNetCore.Hosting.Internal.WebHost - Request finished in 12.1446ms 200 image/png
INFO  2018-02-24 23:36:57,688 [6    ] soft.AspNetCore.Hosting.Internal.WebHost - Request starting HTTP/1.1 GET http://localhost:21021/swagger/images/favicon-16x16.png  
INFO  2018-02-24 23:36:57,694 [6    ] NetCore.StaticFiles.StaticFileMiddleware - Sending file. Request path: '/images/favicon-16x16.png'. Physical path: 'N/A'
INFO  2018-02-24 23:36:57,699 [6    ] soft.AspNetCore.Hosting.Internal.WebHost - Request finished in 13.0916ms 200 image/png
INFO  2018-02-24 23:36:57,980 [13   ] soft.AspNetCore.Hosting.Internal.WebHost - Request finished in 327.7318ms 200 application/json
INFO  2018-02-24 23:36:58,238 [6    ] soft.AspNetCore.Hosting.Internal.WebHost - Request starting HTTP/1.1 GET http://localhost:21021/swagger/ui/abp.js?_=1519501018230  
INFO  2018-02-24 23:36:58,240 [14   ] soft.AspNetCore.Hosting.Internal.WebHost - Request starting HTTP/1.1 GET http://localhost:21021/swagger/ui/on-complete.js?_=1519501018230  
INFO  2018-02-24 23:36:58,247 [14   ] NetCore.StaticFiles.StaticFileMiddleware - Sending file. Request path: '/swagger/ui/on-complete.js'. Physical path: 'C:\Users\Nick\Documents\Visual Studio 2017\Projects\Boilerplate\Core2X\Plain\3.5.0\aspnet-core\src\Kate.Web.Host\wwwroot\swagger\ui\on-complete.js'
INFO  2018-02-24 23:36:58,249 [6    ] NetCore.StaticFiles.StaticFileMiddleware - Sending file. Request path: '/swagger/ui/abp.js'. Physical path: 'C:\Users\Nick\Documents\Visual Studio 2017\Projects\Boilerplate\Core2X\Plain\3.5.0\aspnet-core\src\Kate.Web.Host\wwwroot\swagger\ui\abp.js'
INFO  2018-02-24 23:36:58,255 [6    ] soft.AspNetCore.Hosting.Internal.WebHost - Request finished in 17.4686ms 200 application/javascript
INFO  2018-02-24 23:36:58,261 [5    ] soft.AspNetCore.Hosting.Internal.WebHost - Request finished in 22.8518ms 200 application/javascript
INFO  2018-02-24 23:38:55,501 [5    ] soft.AspNetCore.Hosting.Internal.WebHost - Request starting HTTP/1.1 GET http://localhost:21021/swagger/images/throbber.gif  
INFO  2018-02-24 23:38:55,506 [5    ] NetCore.StaticFiles.StaticFileMiddleware - Sending file. Request path: '/images/throbber.gif'. Physical path: 'N/A'
INFO  2018-02-24 23:38:55,510 [5    ] soft.AspNetCore.Hosting.Internal.WebHost - Request finished in 8.3364ms 200 image/gif
INFO  2018-02-24 23:38:59,392 [20   ] soft.AspNetCore.Hosting.Internal.WebHost - Request starting HTTP/1.1 GET http://localhost:21021/swagger/images/explorer_icons.png  
INFO  2018-02-24 23:38:59,396 [20   ] NetCore.StaticFiles.StaticFileMiddleware - Sending file. Request path: '/images/explorer_icons.png'. Physical path: 'N/A'
INFO  2018-02-24 23:38:59,400 [20   ] soft.AspNetCore.Hosting.Internal.WebHost - Request finished in 7.7294ms 200 image/png
INFO  2018-02-24 23:39:31,275 [6    ] soft.AspNetCore.Hosting.Internal.WebHost - Request starting HTTP/1.1 GET http://localhost:21021/api/services/app/Role/Get?Id=1  
INFO  2018-02-24 23:39:31,568 [6    ] ore.Mvc.Internal.ControllerActionInvoker - Executing action method Kate.Roles.RoleAppService.Get (Kate.Application) with arguments (Abp.Application.Services.Dto.EntityDto`1[System.Int32]) - ModelState is Valid
WARN  2018-02-24 23:39:31,905 [14   ] Mvc.ExceptionHandling.AbpExceptionFilter - Current user did not login to the application!
Abp.Authorization.AbpAuthorizationException: Current user did not login to the application!
   at Abp.Authorization.AuthorizationHelper.<AuthorizeAsync>d__19.MoveNext() in D:\Github\aspnetboilerplate\src\Abp\Authorization\AuthorizationHelper.cs:line 43
--- End of stack trace from previous location where exception was thrown ---
   at System.Runtime.ExceptionServices.ExceptionDispatchInfo.Throw()
   at System.Runtime.CompilerServices.TaskAwaiter.HandleNonSuccessAndDebuggerNotification(Task task)
   at Abp.Authorization.AuthorizationHelper.<CheckPermissions>d__22.MoveNext() in D:\Github\aspnetboilerplate\src\Abp\Authorization\AuthorizationHelper.cs:line 98
--- End of stack trace from previous location where exception was thrown ---
   at System.Runtime.ExceptionServices.ExceptionDispatchInfo.Throw()
   at System.Runtime.CompilerServices.TaskAwaiter.HandleNonSuccessAndDebuggerNotification(Task task)
   at Abp.Authorization.AuthorizationHelper.<AuthorizeAsync>d__20.MoveNext() in D:\Github\aspnetboilerplate\src\Abp\Authorization\AuthorizationHelper.cs:line 57
--- End of stack trace from previous location where exception was thrown ---
   at System.Runtime.ExceptionServices.ExceptionDispatchInfo.Throw()
   at System.Runtime.CompilerServices.TaskAwaiter.HandleNonSuccessAndDebuggerNotification(Task task)
   at Nito.AsyncEx.Synchronous.TaskExtensions.WaitAndUnwrapException(Task task)
   at System.Threading.ExecutionContext.Run(ExecutionContext executionContext, ContextCallback callback, Object state)
   at System.Threading.Tasks.Task.ExecuteWithThreadLocal(Task& currentTaskSlot)
--- End of stack trace from previous location where exception was thrown ---
   at System.Runtime.ExceptionServices.ExceptionDispatchInfo.Throw()
   at System.Runtime.CompilerServices.TaskAwaiter.HandleNonSuccessAndDebuggerNotification(Task task)
   at Nito.AsyncEx.Synchronous.TaskExtensions.WaitAndUnwrapException(Task task)
   at Nito.AsyncEx.AsyncContext.Run(Func`1 action)
   at Abp.Authorization.AuthorizationInterceptor.Intercept(IInvocation invocation) in D:\Github\aspnetboilerplate\src\Abp\Authorization\AuthorizationInterceptor.cs:line 20
   at Castle.DynamicProxy.AbstractInvocation.Proceed()
   at Abp.Domain.Uow.UnitOfWorkInterceptor.PerformAsyncUow(IInvocation invocation, UnitOfWorkOptions options) in D:\Github\aspnetboilerplate\src\Abp\Domain\Uow\UnitOfWorkInterceptor.cs:line 83
   at Castle.DynamicProxy.AbstractInvocation.Proceed()
   at Castle.DynamicProxy.AbstractInvocation.Proceed()
   at Castle.DynamicProxy.AbstractInvocation.Proceed()
   at Castle.Proxies.RoleAppServiceProxy.Get(EntityDto`1 input)
   at lambda_method(Closure , Object , Object[] )
   at Microsoft.Extensions.Internal.ObjectMethodExecutor.ExecuteAsync(Object target, Object[] parameters)
   at Microsoft.AspNetCore.Mvc.Internal.ControllerActionInvoker.<InvokeActionMethodAsync>d__12.MoveNext()
--- End of stack trace from previous location where exception was thrown ---
   at System.Runtime.ExceptionServices.ExceptionDispatchInfo.Throw()
   at System.Runtime.CompilerServices.TaskAwaiter.HandleNonSuccessAndDebuggerNotification(Task task)
   at Microsoft.AspNetCore.Mvc.Internal.ControllerActionInvoker.<InvokeNextActionFilterAsync>d__10.MoveNext()
--- End of stack trace from previous location where exception was thrown ---
   at System.Runtime.ExceptionServices.ExceptionDispatchInfo.Throw()
   at Microsoft.AspNetCore.Mvc.Internal.ControllerActionInvoker.Rethrow(ActionExecutedContext context)
   at Microsoft.AspNetCore.Mvc.Internal.ControllerActionInvoker.Next(State& next, Scope& scope, Object& state, Boolean& isCompleted)
   at Microsoft.AspNetCore.Mvc.Internal.ControllerActionInvoker.<InvokeInnerFilterAsync>d__14.MoveNext()
--- End of stack trace from previous location where exception was thrown ---
   at System.Runtime.ExceptionServices.ExceptionDispatchInfo.Throw()
   at System.Runtime.CompilerServices.TaskAwaiter.HandleNonSuccessAndDebuggerNotification(Task task)
   at Microsoft.AspNetCore.Mvc.Internal.ResourceInvoker.<InvokeNextExceptionFilterAsync>d__23.MoveNext()
INFO  2018-02-24 23:39:31,939 [14   ] etCore.Mvc.Internal.ObjectResultExecutor - Executing ObjectResult, writing value Microsoft.AspNetCore.Mvc.ControllerContext.
INFO  2018-02-24 23:39:31,961 [14   ] ore.Mvc.Internal.ControllerActionInvoker - Executed action Kate.Roles.RoleAppService.Get (Kate.Application) in 637.0362ms
INFO  2018-02-24 23:39:31,966 [14   ] soft.AspNetCore.Hosting.Internal.WebHost - Request finished in 690.171ms 401 application/json; charset=utf-8
INFO  2018-02-24 23:39:53,146 [18   ] soft.AspNetCore.Hosting.Internal.WebHost - Request starting HTTP/1.1 GET http://localhost:21021/api/services/app/Role/Get?Id=2  
INFO  2018-02-24 23:39:53,173 [18   ] ore.Mvc.Internal.ControllerActionInvoker - Executing action method Kate.Roles.RoleAppService.Get (Kate.Application) with arguments (Abp.Application.Services.Dto.EntityDto`1[System.Int32]) - ModelState is Valid
WARN  2018-02-24 23:39:53,215 [13   ] Mvc.ExceptionHandling.AbpExceptionFilter - Current user did not login to the application!
Abp.Authorization.AbpAuthorizationException: Current user did not login to the application!
   at Abp.Authorization.AuthorizationHelper.<AuthorizeAsync>d__19.MoveNext() in D:\Github\aspnetboilerplate\src\Abp\Authorization\AuthorizationHelper.cs:line 43
--- End of stack trace from previous location where exception was thrown ---
   at System.Runtime.ExceptionServices.ExceptionDispatchInfo.Throw()
   at System.Runtime.CompilerServices.TaskAwaiter.HandleNonSuccessAndDebuggerNotification(Task task)
   at Abp.Authorization.AuthorizationHelper.<CheckPermissions>d__22.MoveNext() in D:\Github\aspnetboilerplate\src\Abp\Authorization\AuthorizationHelper.cs:line 98
--- End of stack trace from previous location where exception was thrown ---
   at System.Runtime.ExceptionServices.ExceptionDispatchInfo.Throw()
   at System.Runtime.CompilerServices.TaskAwaiter.HandleNonSuccessAndDebuggerNotification(Task task)
   at Abp.Authorization.AuthorizationHelper.<AuthorizeAsync>d__20.MoveNext() in D:\Github\aspnetboilerplate\src\Abp\Authorization\AuthorizationHelper.cs:line 57
--- End of stack trace from previous location where exception was thrown ---
   at System.Runtime.ExceptionServices.ExceptionDispatchInfo.Throw()
   at System.Runtime.CompilerServices.TaskAwaiter.HandleNonSuccessAndDebuggerNotification(Task task)
   at Nito.AsyncEx.Synchronous.TaskExtensions.WaitAndUnwrapException(Task task)
   at System.Threading.ExecutionContext.Run(ExecutionContext executionContext, ContextCallback callback, Object state)
   at System.Threading.Tasks.Task.ExecuteWithThreadLocal(Task& currentTaskSlot)
--- End of stack trace from previous location where exception was thrown ---
   at System.Runtime.ExceptionServices.ExceptionDispatchInfo.Throw()
   at System.Runtime.CompilerServices.TaskAwaiter.HandleNonSuccessAndDebuggerNotification(Task task)
   at Nito.AsyncEx.Synchronous.TaskExtensions.WaitAndUnwrapException(Task task)
   at Nito.AsyncEx.AsyncContext.Run(Func`1 action)
   at Abp.Authorization.AuthorizationInterceptor.Intercept(IInvocation invocation) in D:\Github\aspnetboilerplate\src\Abp\Authorization\AuthorizationInterceptor.cs:line 20
   at Castle.DynamicProxy.AbstractInvocation.Proceed()
   at Abp.Domain.Uow.UnitOfWorkInterceptor.PerformAsyncUow(IInvocation invocation, UnitOfWorkOptions options) in D:\Github\aspnetboilerplate\src\Abp\Domain\Uow\UnitOfWorkInterceptor.cs:line 83
   at Castle.DynamicProxy.AbstractInvocation.Proceed()
   at Castle.DynamicProxy.AbstractInvocation.Proceed()
   at Castle.DynamicProxy.AbstractInvocation.Proceed()
   at Castle.Proxies.RoleAppServiceProxy.Get(EntityDto`1 input)
   at lambda_method(Closure , Object , Object[] )
   at Microsoft.Extensions.Internal.ObjectMethodExecutor.ExecuteAsync(Object target, Object[] parameters)
   at Microsoft.AspNetCore.Mvc.Internal.ControllerActionInvoker.<InvokeActionMethodAsync>d__12.MoveNext()
--- End of stack trace from previous location where exception was thrown ---
   at System.Runtime.ExceptionServices.ExceptionDispatchInfo.Throw()
   at System.Runtime.CompilerServices.TaskAwaiter.HandleNonSuccessAndDebuggerNotification(Task task)
   at Microsoft.AspNetCore.Mvc.Internal.ControllerActionInvoker.<InvokeNextActionFilterAsync>d__10.MoveNext()
--- End of stack trace from previous location where exception was thrown ---
   at System.Runtime.ExceptionServices.ExceptionDispatchInfo.Throw()
   at Microsoft.AspNetCore.Mvc.Internal.ControllerActionInvoker.Rethrow(ActionExecutedContext context)
   at Microsoft.AspNetCore.Mvc.Internal.ControllerActionInvoker.Next(State& next, Scope& scope, Object& state, Boolean& isCompleted)
   at Microsoft.AspNetCore.Mvc.Internal.ControllerActionInvoker.<InvokeInnerFilterAsync>d__14.MoveNext()
--- End of stack trace from previous location where exception was thrown ---
   at System.Runtime.ExceptionServices.ExceptionDispatchInfo.Throw()
   at System.Runtime.CompilerServices.TaskAwaiter.HandleNonSuccessAndDebuggerNotification(Task task)
   at Microsoft.AspNetCore.Mvc.Internal.ResourceInvoker.<InvokeNextExceptionFilterAsync>d__23.MoveNext()
INFO  2018-02-24 23:39:53,224 [13   ] etCore.Mvc.Internal.ObjectResultExecutor - Executing ObjectResult, writing value Microsoft.AspNetCore.Mvc.ControllerContext.
INFO  2018-02-24 23:39:53,228 [13   ] ore.Mvc.Internal.ControllerActionInvoker - Executed action Kate.Roles.RoleAppService.Get (Kate.Application) in 73.0893ms
INFO  2018-02-24 23:39:53,232 [13   ] soft.AspNetCore.Hosting.Internal.WebHost - Request finished in 86.2162ms 401 application/json; charset=utf-8
DEBUG 2018-02-25 00:32:04,274 [1    ] Abp.Modules.AbpModuleManager             - Loading Abp modules...
DEBUG 2018-02-25 00:32:04,353 [1    ] Abp.Modules.AbpModuleManager             - Found 15 ABP modules in total.
DEBUG 2018-02-25 00:32:04,377 [1    ] Abp.Modules.AbpModuleManager             - Loaded module: Kate.Web.Host.Startup.KateWebHostModule, Kate.Web.Host, Version=1.0.0.0, Culture=neutral, PublicKeyToken=null
DEBUG 2018-02-25 00:32:04,382 [1    ] Abp.Modules.AbpModuleManager             - Loaded module: Kate.KateWebCoreModule, Kate.Web.Core, Version=1.0.0.0, Culture=neutral, PublicKeyToken=null
DEBUG 2018-02-25 00:32:04,383 [1    ] Abp.Modules.AbpModuleManager             - Loaded module: Kate.KateApplicationModule, Kate.Application, Version=1.0.0.0, Culture=neutral, PublicKeyToken=null
DEBUG 2018-02-25 00:32:04,383 [1    ] Abp.Modules.AbpModuleManager             - Loaded module: Kate.KateCoreModule, Kate.Core, Version=1.0.0.0, Culture=neutral, PublicKeyToken=null
DEBUG 2018-02-25 00:32:04,384 [1    ] Abp.Modules.AbpModuleManager             - Loaded module: Abp.Zero.AbpZeroCoreModule, Abp.ZeroCore, Version=3.4.0.0, Culture=neutral, PublicKeyToken=null
DEBUG 2018-02-25 00:32:04,384 [1    ] Abp.Modules.AbpModuleManager             - Loaded module: Abp.Zero.AbpZeroCommonModule, Abp.Zero.Common, Version=3.4.0.0, Culture=neutral, PublicKeyToken=null
DEBUG 2018-02-25 00:32:04,384 [1    ] Abp.Modules.AbpModuleManager             - Loaded module: Abp.AbpKernelModule, Abp, Version=3.4.0.0, Culture=neutral, PublicKeyToken=null
DEBUG 2018-02-25 00:32:04,385 [1    ] Abp.Modules.AbpModuleManager             - Loaded module: Abp.AutoMapper.AbpAutoMapperModule, Abp.AutoMapper, Version=3.4.0.0, Culture=neutral, PublicKeyToken=null
DEBUG 2018-02-25 00:32:04,386 [1    ] Abp.Modules.AbpModuleManager             - Loaded module: Kate.EntityFrameworkCore.KateEntityFrameworkModule, Kate.EntityFrameworkCore, Version=1.0.0.0, Culture=neutral, PublicKeyToken=null
DEBUG 2018-02-25 00:32:04,386 [1    ] Abp.Modules.AbpModuleManager             - Loaded module: Abp.Zero.EntityFrameworkCore.AbpZeroCoreEntityFrameworkCoreModule, Abp.ZeroCore.EntityFrameworkCore, Version=3.4.0.0, Culture=neutral, PublicKeyToken=null
DEBUG 2018-02-25 00:32:04,387 [1    ] Abp.Modules.AbpModuleManager             - Loaded module: Abp.EntityFrameworkCore.AbpEntityFrameworkCoreModule, Abp.EntityFrameworkCore, Version=3.4.0.0, Culture=neutral, PublicKeyToken=null
DEBUG 2018-02-25 00:32:04,387 [1    ] Abp.Modules.AbpModuleManager             - Loaded module: Abp.EntityFramework.AbpEntityFrameworkCommonModule, Abp.EntityFramework.Common, Version=3.4.0.0, Culture=neutral, PublicKeyToken=null
DEBUG 2018-02-25 00:32:04,387 [1    ] Abp.Modules.AbpModuleManager             - Loaded module: Abp.AspNetCore.AbpAspNetCoreModule, Abp.AspNetCore, Version=3.4.0.0, Culture=neutral, PublicKeyToken=null
DEBUG 2018-02-25 00:32:04,388 [1    ] Abp.Modules.AbpModuleManager             - Loaded module: Abp.Web.AbpWebCommonModule, Abp.Web.Common, Version=3.4.0.0, Culture=neutral, PublicKeyToken=null
DEBUG 2018-02-25 00:32:04,388 [1    ] Abp.Modules.AbpModuleManager             - Loaded module: Abp.AspNetCore.SignalR.AbpAspNetCoreSignalRModule, Abp.AspNetCore.SignalR, Version=3.4.0.0, Culture=neutral, PublicKeyToken=null
DEBUG 2018-02-25 00:32:04,393 [1    ] Abp.Modules.AbpModuleManager             - 15 modules loaded.
DEBUG 2018-02-25 00:32:04,460 [1    ] o.Configuration.LanguageManagementConfig - Converted Abp (Abp.Localization.Dictionaries.DictionaryBasedLocalizationSource) to MultiTenantLocalizationSource
DEBUG 2018-02-25 00:32:04,460 [1    ] o.Configuration.LanguageManagementConfig - Converted AbpZero (Abp.Localization.Dictionaries.DictionaryBasedLocalizationSource) to MultiTenantLocalizationSource
DEBUG 2018-02-25 00:32:04,460 [1    ] o.Configuration.LanguageManagementConfig - Converted Kate (Abp.Localization.Dictionaries.DictionaryBasedLocalizationSource) to MultiTenantLocalizationSource
DEBUG 2018-02-25 00:32:04,460 [1    ] o.Configuration.LanguageManagementConfig - Converted AbpWeb (Abp.Localization.Dictionaries.DictionaryBasedLocalizationSource) to MultiTenantLocalizationSource
DEBUG 2018-02-25 00:32:04,708 [1    ] ameworkCore.AbpEntityFrameworkCoreModule - Registering DbContext: Kate.EntityFrameworkCore.KateDbContext, Kate.EntityFrameworkCore, Version=1.0.0.0, Culture=neutral, PublicKeyToken=null
DEBUG 2018-02-25 00:32:05,666 [1    ] Abp.Localization.LocalizationManager     - Initializing 4 localization sources.
DEBUG 2018-02-25 00:32:05,689 [1    ] Abp.Localization.LocalizationManager     - Initialized localization source: Abp
DEBUG 2018-02-25 00:32:05,697 [1    ] Abp.Localization.LocalizationManager     - Initialized localization source: AbpZero
DEBUG 2018-02-25 00:32:05,700 [1    ] Abp.Localization.LocalizationManager     - Initialized localization source: Kate
DEBUG 2018-02-25 00:32:05,702 [1    ] Abp.Localization.LocalizationManager     - Initialized localization source: AbpWeb
DEBUG 2018-02-25 00:32:05,886 [1    ] Abp.BackgroundJobs.BackgroundJobManager  - Start background worker: Abp.BackgroundJobs.BackgroundJobManager
DEBUG 2018-02-25 00:32:05,935 [1    ] Abp.AutoMapper.AbpAutoMapperModule       - Found 10 classes define auto mapping attributes
DEBUG 2018-02-25 00:32:05,935 [1    ] Abp.AutoMapper.AbpAutoMapperModule       - Kate.Models.TokenAuth.ExternalLoginProviderInfoModel
DEBUG 2018-02-25 00:32:05,941 [1    ] Abp.AutoMapper.AbpAutoMapperModule       - Kate.Users.Dto.CreateUserDto
DEBUG 2018-02-25 00:32:05,941 [1    ] Abp.AutoMapper.AbpAutoMapperModule       - Kate.Users.Dto.UserDto
DEBUG 2018-02-25 00:32:05,942 [1    ] Abp.AutoMapper.AbpAutoMapperModule       - Kate.Sessions.Dto.TenantLoginInfoDto
DEBUG 2018-02-25 00:32:05,942 [1    ] Abp.AutoMapper.AbpAutoMapperModule       - Kate.Sessions.Dto.UserLoginInfoDto
DEBUG 2018-02-25 00:32:05,942 [1    ] Abp.AutoMapper.AbpAutoMapperModule       - Kate.Roles.Dto.CreateRoleDto
DEBUG 2018-02-25 00:32:05,942 [1    ] Abp.AutoMapper.AbpAutoMapperModule       - Kate.Roles.Dto.PermissionDto
DEBUG 2018-02-25 00:32:05,942 [1    ] Abp.AutoMapper.AbpAutoMapperModule       - Kate.Roles.Dto.RoleDto
DEBUG 2018-02-25 00:32:05,942 [1    ] Abp.AutoMapper.AbpAutoMapperModule       - Kate.MultiTenancy.Dto.CreateTenantDto
DEBUG 2018-02-25 00:32:05,943 [1    ] Abp.AutoMapper.AbpAutoMapperModule       - Kate.MultiTenancy.Dto.TenantDto
INFO  2018-02-25 00:32:08,851 [6    ] soft.AspNetCore.Hosting.Internal.WebHost - Request starting HTTP/1.1 GET http://localhost:21021/  
INFO  2018-02-25 00:32:13,396 [6    ] ore.Mvc.Internal.ControllerActionInvoker - Executing action method Kate.Web.Host.Controllers.HomeController.Index (Kate.Web.Host) with arguments ((null)) - ModelState is Valid
INFO  2018-02-25 00:32:13,552 [5    ] Core.Mvc.Internal.RedirectResultExecutor - Executing RedirectResult, redirecting to /swagger.
INFO  2018-02-25 00:32:13,572 [5    ] ore.Mvc.Internal.ControllerActionInvoker - Executed action Kate.Web.Host.Controllers.HomeController.Index (Kate.Web.Host) in 1132.5634ms
INFO  2018-02-25 00:32:13,594 [5    ] soft.AspNetCore.Hosting.Internal.WebHost - Request finished in 4786.2447ms 302 
INFO  2018-02-25 00:32:13,611 [5    ] soft.AspNetCore.Hosting.Internal.WebHost - Request starting HTTP/1.1 GET http://localhost:21021/swagger/  
INFO  2018-02-25 00:32:13,650 [5    ] NetCore.StaticFiles.StaticFileMiddleware - Sending file. Request path: '/index.html'. Physical path: 'N/A'
INFO  2018-02-25 00:32:13,662 [5    ] soft.AspNetCore.Hosting.Internal.WebHost - Request finished in 50.941ms 200 text/html
INFO  2018-02-25 00:32:13,681 [11   ] soft.AspNetCore.Hosting.Internal.WebHost - Request starting HTTP/1.1 GET http://localhost:21021/swagger/css/typography.css  
INFO  2018-02-25 00:32:13,696 [14   ] soft.AspNetCore.Hosting.Internal.WebHost - Request starting HTTP/1.1 GET http://localhost:21021/swagger/lib/jquery-1.8.0.min.js  
INFO  2018-02-25 00:32:13,698 [10   ] soft.AspNetCore.Hosting.Internal.WebHost - Request starting HTTP/1.1 GET http://localhost:21021/swagger/css/reset.css  
INFO  2018-02-25 00:32:13,700 [12   ] soft.AspNetCore.Hosting.Internal.WebHost - Request starting HTTP/1.1 GET http://localhost:21021/swagger/lib/object-assign-pollyfill.js  
INFO  2018-02-25 00:32:13,701 [6    ] soft.AspNetCore.Hosting.Internal.WebHost - Request starting HTTP/1.1 GET http://localhost:21021/swagger/css/screen.css  
INFO  2018-02-25 00:32:13,703 [5    ] soft.AspNetCore.Hosting.Internal.WebHost - Request starting HTTP/1.1 GET http://localhost:21021/swagger/lib/jquery.slideto.min.js  
INFO  2018-02-25 00:32:13,708 [11   ] NetCore.StaticFiles.StaticFileMiddleware - The file /css/typography.css was not modified
INFO  2018-02-25 00:32:13,709 [14   ] NetCore.StaticFiles.StaticFileMiddleware - The file /lib/jquery-1.8.0.min.js was not modified
INFO  2018-02-25 00:32:13,714 [10   ] NetCore.StaticFiles.StaticFileMiddleware - The file /css/reset.css was not modified
INFO  2018-02-25 00:32:13,717 [12   ] NetCore.StaticFiles.StaticFileMiddleware - The file /lib/object-assign-pollyfill.js was not modified
INFO  2018-02-25 00:32:13,726 [6    ] NetCore.StaticFiles.StaticFileMiddleware - The file /css/screen.css was not modified
INFO  2018-02-25 00:32:13,730 [12   ] soft.AspNetCore.Hosting.Internal.WebHost - Request finished in 34.8451ms 304 application/javascript
INFO  2018-02-25 00:32:13,733 [11   ] soft.AspNetCore.Hosting.Internal.WebHost - Request finished in 37.7209ms 304 text/css
INFO  2018-02-25 00:32:13,735 [5    ] NetCore.StaticFiles.StaticFileMiddleware - The file /lib/jquery.slideto.min.js was not modified
INFO  2018-02-25 00:32:13,736 [14   ] soft.AspNetCore.Hosting.Internal.WebHost - Request finished in 30.0301ms 304 application/javascript
INFO  2018-02-25 00:32:13,741 [10   ] soft.AspNetCore.Hosting.Internal.WebHost - Request finished in 32.1797ms 304 text/css
INFO  2018-02-25 00:32:13,752 [6    ] soft.AspNetCore.Hosting.Internal.WebHost - Request finished in 43.7598ms 304 text/css
INFO  2018-02-25 00:32:13,754 [12   ] soft.AspNetCore.Hosting.Internal.WebHost - Request starting HTTP/1.1 GET http://localhost:21021/swagger/lib/lodash.min.js  
INFO  2018-02-25 00:32:13,760 [14   ] soft.AspNetCore.Hosting.Internal.WebHost - Request starting HTTP/1.1 GET http://localhost:21021/swagger/lib/jquery.wiggle.min.js  
INFO  2018-02-25 00:32:13,764 [10   ] soft.AspNetCore.Hosting.Internal.WebHost - Request starting HTTP/1.1 GET http://localhost:21021/swagger/lib/handlebars-4.0.5.js  
INFO  2018-02-25 00:32:13,766 [5    ] soft.AspNetCore.Hosting.Internal.WebHost - Request finished in 53.2208ms 304 application/javascript
INFO  2018-02-25 00:32:13,771 [11   ] soft.AspNetCore.Hosting.Internal.WebHost - Request starting HTTP/1.1 GET http://localhost:21021/swagger/lib/jquery.ba-bbq.min.js  
INFO  2018-02-25 00:32:13,772 [6    ] soft.AspNetCore.Hosting.Internal.WebHost - Request starting HTTP/1.1 GET http://localhost:21021/swagger/lib/backbone-min.js  
INFO  2018-02-25 00:32:13,774 [12   ] NetCore.StaticFiles.StaticFileMiddleware - The file /lib/lodash.min.js was not modified
INFO  2018-02-25 00:32:13,783 [14   ] NetCore.StaticFiles.StaticFileMiddleware - The file /lib/jquery.wiggle.min.js was not modified
INFO  2018-02-25 00:32:13,785 [12   ] soft.AspNetCore.Hosting.Internal.WebHost - Request finished in 30.5602ms 304 application/javascript
INFO  2018-02-25 00:32:13,788 [10   ] NetCore.StaticFiles.StaticFileMiddleware - The file /lib/handlebars-4.0.5.js was not modified
INFO  2018-02-25 00:32:13,836 [11   ] NetCore.StaticFiles.StaticFileMiddleware - The file /lib/jquery.ba-bbq.min.js was not modified
INFO  2018-02-25 00:32:13,841 [12   ] soft.AspNetCore.Hosting.Internal.WebHost - Request starting HTTP/1.1 GET http://localhost:21021/swagger/lib/highlight.9.1.0.pack.js  
INFO  2018-02-25 00:32:13,844 [14   ] soft.AspNetCore.Hosting.Internal.WebHost - Request finished in 43.2283ms 304 application/javascript
INFO  2018-02-25 00:32:13,846 [5    ] soft.AspNetCore.Hosting.Internal.WebHost - Request starting HTTP/1.1 GET http://localhost:21021/swagger/swagger-ui.min.js  
INFO  2018-02-25 00:32:13,848 [11   ] soft.AspNetCore.Hosting.Internal.WebHost - Request finished in 84.9934ms 304 application/javascript
INFO  2018-02-25 00:32:13,853 [6    ] NetCore.StaticFiles.StaticFileMiddleware - The file /lib/backbone-min.js was not modified
INFO  2018-02-25 00:32:13,855 [10   ] soft.AspNetCore.Hosting.Internal.WebHost - Request finished in 40.7884ms 304 application/javascript
INFO  2018-02-25 00:32:13,884 [12   ] NetCore.StaticFiles.StaticFileMiddleware - The file /lib/highlight.9.1.0.pack.js was not modified
INFO  2018-02-25 00:32:13,886 [14   ] soft.AspNetCore.Hosting.Internal.WebHost - Request starting HTTP/1.1 GET http://localhost:21021/swagger/lib/highlight.9.1.0.pack_extended.js  
INFO  2018-02-25 00:32:13,887 [6    ] soft.AspNetCore.Hosting.Internal.WebHost - Request finished in 91.005ms 304 application/javascript
INFO  2018-02-25 00:32:13,895 [12   ] soft.AspNetCore.Hosting.Internal.WebHost - Request finished in 93.9941ms 304 application/javascript
INFO  2018-02-25 00:32:13,897 [11   ] soft.AspNetCore.Hosting.Internal.WebHost - Request starting HTTP/1.1 GET http://localhost:21021/swagger/lib/marked.js  
INFO  2018-02-25 00:32:13,900 [14   ] NetCore.StaticFiles.StaticFileMiddleware - The file /lib/highlight.9.1.0.pack_extended.js was not modified
INFO  2018-02-25 00:32:13,907 [14   ] soft.AspNetCore.Hosting.Internal.WebHost - Request finished in 48.6555ms 304 application/javascript
INFO  2018-02-25 00:32:13,913 [10   ] soft.AspNetCore.Hosting.Internal.WebHost - Request starting HTTP/1.1 GET http://localhost:21021/swagger/lib/jsoneditor.min.js  
INFO  2018-02-25 00:32:13,915 [5    ] NetCore.StaticFiles.StaticFileMiddleware - The file /swagger-ui.min.js was not modified
INFO  2018-02-25 00:32:13,916 [11   ] NetCore.StaticFiles.StaticFileMiddleware - The file /lib/marked.js was not modified
INFO  2018-02-25 00:32:13,924 [6    ] soft.AspNetCore.Hosting.Internal.WebHost - Request starting HTTP/1.1 GET http://localhost:21021/swagger/lib/swagger-oauth.js  
INFO  2018-02-25 00:32:13,925 [11   ] soft.AspNetCore.Hosting.Internal.WebHost - Request finished in 59.5693ms 304 application/javascript
INFO  2018-02-25 00:32:13,927 [5    ] soft.AspNetCore.Hosting.Internal.WebHost - Request finished in 138.9991ms 304 application/javascript
INFO  2018-02-25 00:32:13,932 [10   ] NetCore.StaticFiles.StaticFileMiddleware - The file /lib/jsoneditor.min.js was not modified
INFO  2018-02-25 00:32:13,938 [10   ] soft.AspNetCore.Hosting.Internal.WebHost - Request finished in 40.3278ms 304 application/javascript
INFO  2018-02-25 00:32:13,943 [6    ] NetCore.StaticFiles.StaticFileMiddleware - The file /lib/swagger-oauth.js was not modified
INFO  2018-02-25 00:32:13,948 [5    ] soft.AspNetCore.Hosting.Internal.WebHost - Request starting HTTP/1.1 GET http://localhost:21021/swagger/images/logo_small.png  
INFO  2018-02-25 00:32:13,950 [6    ] soft.AspNetCore.Hosting.Internal.WebHost - Request finished in 37.6904ms 304 application/javascript
INFO  2018-02-25 00:32:13,956 [5    ] NetCore.StaticFiles.StaticFileMiddleware - The file /images/logo_small.png was not modified
INFO  2018-02-25 00:32:13,959 [5    ] soft.AspNetCore.Hosting.Internal.WebHost - Request finished in 14.696ms 304 image/png
INFO  2018-02-25 00:32:13,964 [6    ] soft.AspNetCore.Hosting.Internal.WebHost - Request starting HTTP/1.1 GET http://localhost:21021/swagger/css/print.css  
INFO  2018-02-25 00:32:13,969 [6    ] NetCore.StaticFiles.StaticFileMiddleware - The file /css/print.css was not modified
INFO  2018-02-25 00:32:13,972 [6    ] soft.AspNetCore.Hosting.Internal.WebHost - Request finished in 9.4458ms 304 text/css
INFO  2018-02-25 00:32:14,045 [5    ] soft.AspNetCore.Hosting.Internal.WebHost - Request starting HTTP/1.1 GET http://localhost:21021/swagger/v1/swagger.json  
INFO  2018-02-25 00:32:14,296 [5    ] soft.AspNetCore.Hosting.Internal.WebHost - Request finished in 251.4616ms 200 application/json
INFO  2018-02-25 00:32:14,558 [11   ] soft.AspNetCore.Hosting.Internal.WebHost - Request starting HTTP/1.1 GET http://localhost:21021/swagger/ui/on-complete.js?_=1519504334549  
INFO  2018-02-25 00:32:14,560 [12   ] soft.AspNetCore.Hosting.Internal.WebHost - Request starting HTTP/1.1 GET http://localhost:21021/swagger/ui/abp.js?_=1519504334548  
INFO  2018-02-25 00:32:14,567 [12   ] NetCore.StaticFiles.StaticFileMiddleware - Sending file. Request path: '/swagger/ui/abp.js'. Physical path: 'C:\Users\Nick\Documents\Visual Studio 2017\Projects\Boilerplate\Core2X\Plain\3.5.0\aspnet-core\src\Kate.Web.Host\wwwroot\swagger\ui\abp.js'
INFO  2018-02-25 00:32:14,569 [11   ] NetCore.StaticFiles.StaticFileMiddleware - Sending file. Request path: '/swagger/ui/on-complete.js'. Physical path: 'C:\Users\Nick\Documents\Visual Studio 2017\Projects\Boilerplate\Core2X\Plain\3.5.0\aspnet-core\src\Kate.Web.Host\wwwroot\swagger\ui\on-complete.js'
INFO  2018-02-25 00:32:14,579 [6    ] soft.AspNetCore.Hosting.Internal.WebHost - Request finished in 21.9681ms 200 application/javascript
INFO  2018-02-25 00:32:14,581 [10   ] soft.AspNetCore.Hosting.Internal.WebHost - Request finished in 22.0294ms 200 application/javascript
DEBUG 2018-02-25 01:09:50,387 [1    ] Abp.Modules.AbpModuleManager             - Loading Abp modules...
DEBUG 2018-02-25 01:09:50,451 [1    ] Abp.Modules.AbpModuleManager             - Found 15 ABP modules in total.
DEBUG 2018-02-25 01:09:50,465 [1    ] Abp.Modules.AbpModuleManager             - Loaded module: Kate.Web.Host.Startup.KateWebHostModule, Kate.Web.Host, Version=1.0.0.0, Culture=neutral, PublicKeyToken=null
DEBUG 2018-02-25 01:09:50,468 [1    ] Abp.Modules.AbpModuleManager             - Loaded module: Kate.KateWebCoreModule, Kate.Web.Core, Version=1.0.0.0, Culture=neutral, PublicKeyToken=null
DEBUG 2018-02-25 01:09:50,468 [1    ] Abp.Modules.AbpModuleManager             - Loaded module: Kate.KateApplicationModule, Kate.Application, Version=1.0.0.0, Culture=neutral, PublicKeyToken=null
DEBUG 2018-02-25 01:09:50,468 [1    ] Abp.Modules.AbpModuleManager             - Loaded module: Kate.KateCoreModule, Kate.Core, Version=1.0.0.0, Culture=neutral, PublicKeyToken=null
DEBUG 2018-02-25 01:09:50,469 [1    ] Abp.Modules.AbpModuleManager             - Loaded module: Abp.Zero.AbpZeroCoreModule, Abp.ZeroCore, Version=3.4.0.0, Culture=neutral, PublicKeyToken=null
DEBUG 2018-02-25 01:09:50,469 [1    ] Abp.Modules.AbpModuleManager             - Loaded module: Abp.Zero.AbpZeroCommonModule, Abp.Zero.Common, Version=3.4.0.0, Culture=neutral, PublicKeyToken=null
DEBUG 2018-02-25 01:09:50,469 [1    ] Abp.Modules.AbpModuleManager             - Loaded module: Abp.AbpKernelModule, Abp, Version=3.4.0.0, Culture=neutral, PublicKeyToken=null
DEBUG 2018-02-25 01:09:50,470 [1    ] Abp.Modules.AbpModuleManager             - Loaded module: Abp.AutoMapper.AbpAutoMapperModule, Abp.AutoMapper, Version=3.4.0.0, Culture=neutral, PublicKeyToken=null
DEBUG 2018-02-25 01:09:50,470 [1    ] Abp.Modules.AbpModuleManager             - Loaded module: Kate.EntityFrameworkCore.KateEntityFrameworkModule, Kate.EntityFrameworkCore, Version=1.0.0.0, Culture=neutral, PublicKeyToken=null
DEBUG 2018-02-25 01:09:50,470 [1    ] Abp.Modules.AbpModuleManager             - Loaded module: Abp.Zero.EntityFrameworkCore.AbpZeroCoreEntityFrameworkCoreModule, Abp.ZeroCore.EntityFrameworkCore, Version=3.4.0.0, Culture=neutral, PublicKeyToken=null
DEBUG 2018-02-25 01:09:50,470 [1    ] Abp.Modules.AbpModuleManager             - Loaded module: Abp.EntityFrameworkCore.AbpEntityFrameworkCoreModule, Abp.EntityFrameworkCore, Version=3.4.0.0, Culture=neutral, PublicKeyToken=null
DEBUG 2018-02-25 01:09:50,471 [1    ] Abp.Modules.AbpModuleManager             - Loaded module: Abp.EntityFramework.AbpEntityFrameworkCommonModule, Abp.EntityFramework.Common, Version=3.4.0.0, Culture=neutral, PublicKeyToken=null
DEBUG 2018-02-25 01:09:50,471 [1    ] Abp.Modules.AbpModuleManager             - Loaded module: Abp.AspNetCore.AbpAspNetCoreModule, Abp.AspNetCore, Version=3.4.0.0, Culture=neutral, PublicKeyToken=null
DEBUG 2018-02-25 01:09:50,471 [1    ] Abp.Modules.AbpModuleManager             - Loaded module: Abp.Web.AbpWebCommonModule, Abp.Web.Common, Version=3.4.0.0, Culture=neutral, PublicKeyToken=null
DEBUG 2018-02-25 01:09:50,471 [1    ] Abp.Modules.AbpModuleManager             - Loaded module: Abp.AspNetCore.SignalR.AbpAspNetCoreSignalRModule, Abp.AspNetCore.SignalR, Version=3.4.0.0, Culture=neutral, PublicKeyToken=null
DEBUG 2018-02-25 01:09:50,474 [1    ] Abp.Modules.AbpModuleManager             - 15 modules loaded.
DEBUG 2018-02-25 01:09:50,542 [1    ] o.Configuration.LanguageManagementConfig - Converted Abp (Abp.Localization.Dictionaries.DictionaryBasedLocalizationSource) to MultiTenantLocalizationSource
DEBUG 2018-02-25 01:09:50,542 [1    ] o.Configuration.LanguageManagementConfig - Converted AbpZero (Abp.Localization.Dictionaries.DictionaryBasedLocalizationSource) to MultiTenantLocalizationSource
DEBUG 2018-02-25 01:09:50,542 [1    ] o.Configuration.LanguageManagementConfig - Converted Kate (Abp.Localization.Dictionaries.DictionaryBasedLocalizationSource) to MultiTenantLocalizationSource
DEBUG 2018-02-25 01:09:50,542 [1    ] o.Configuration.LanguageManagementConfig - Converted AbpWeb (Abp.Localization.Dictionaries.DictionaryBasedLocalizationSource) to MultiTenantLocalizationSource
DEBUG 2018-02-25 01:09:50,782 [1    ] ameworkCore.AbpEntityFrameworkCoreModule - Registering DbContext: Kate.EntityFrameworkCore.KateDbContext, Kate.EntityFrameworkCore, Version=1.0.0.0, Culture=neutral, PublicKeyToken=null
DEBUG 2018-02-25 01:09:51,522 [1    ] Abp.Localization.LocalizationManager     - Initializing 4 localization sources.
DEBUG 2018-02-25 01:09:51,532 [1    ] Abp.Localization.LocalizationManager     - Initialized localization source: Abp
DEBUG 2018-02-25 01:09:51,538 [1    ] Abp.Localization.LocalizationManager     - Initialized localization source: AbpZero
DEBUG 2018-02-25 01:09:51,540 [1    ] Abp.Localization.LocalizationManager     - Initialized localization source: Kate
DEBUG 2018-02-25 01:09:51,542 [1    ] Abp.Localization.LocalizationManager     - Initialized localization source: AbpWeb
DEBUG 2018-02-25 01:09:51,679 [1    ] Abp.BackgroundJobs.BackgroundJobManager  - Start background worker: Abp.BackgroundJobs.BackgroundJobManager
DEBUG 2018-02-25 01:09:51,723 [1    ] Abp.AutoMapper.AbpAutoMapperModule       - Found 10 classes define auto mapping attributes
DEBUG 2018-02-25 01:09:51,723 [1    ] Abp.AutoMapper.AbpAutoMapperModule       - Kate.Models.TokenAuth.ExternalLoginProviderInfoModel
DEBUG 2018-02-25 01:09:51,727 [1    ] Abp.AutoMapper.AbpAutoMapperModule       - Kate.Users.Dto.CreateUserDto
DEBUG 2018-02-25 01:09:51,727 [1    ] Abp.AutoMapper.AbpAutoMapperModule       - Kate.Users.Dto.UserDto
DEBUG 2018-02-25 01:09:51,727 [1    ] Abp.AutoMapper.AbpAutoMapperModule       - Kate.Sessions.Dto.TenantLoginInfoDto
DEBUG 2018-02-25 01:09:51,727 [1    ] Abp.AutoMapper.AbpAutoMapperModule       - Kate.Sessions.Dto.UserLoginInfoDto
DEBUG 2018-02-25 01:09:51,727 [1    ] Abp.AutoMapper.AbpAutoMapperModule       - Kate.Roles.Dto.CreateRoleDto
DEBUG 2018-02-25 01:09:51,727 [1    ] Abp.AutoMapper.AbpAutoMapperModule       - Kate.Roles.Dto.PermissionDto
DEBUG 2018-02-25 01:09:51,727 [1    ] Abp.AutoMapper.AbpAutoMapperModule       - Kate.Roles.Dto.RoleDto
DEBUG 2018-02-25 01:09:51,728 [1    ] Abp.AutoMapper.AbpAutoMapperModule       - Kate.MultiTenancy.Dto.CreateTenantDto
DEBUG 2018-02-25 01:09:51,728 [1    ] Abp.AutoMapper.AbpAutoMapperModule       - Kate.MultiTenancy.Dto.TenantDto
INFO  2018-02-25 01:09:54,495 [5    ] soft.AspNetCore.Hosting.Internal.WebHost - Request starting HTTP/1.1 GET http://localhost:21021/  
INFO  2018-02-25 01:09:58,181 [5    ] ore.Mvc.Internal.ControllerActionInvoker - Executing action method Kate.Web.Host.Controllers.HomeController.Index (Kate.Web.Host) with arguments ((null)) - ModelState is Valid
INFO  2018-02-25 01:09:58,311 [6    ] Core.Mvc.Internal.RedirectResultExecutor - Executing RedirectResult, redirecting to /swagger.
INFO  2018-02-25 01:09:58,326 [6    ] ore.Mvc.Internal.ControllerActionInvoker - Executed action Kate.Web.Host.Controllers.HomeController.Index (Kate.Web.Host) in 1003.1256ms
INFO  2018-02-25 01:09:58,341 [6    ] soft.AspNetCore.Hosting.Internal.WebHost - Request finished in 3879.1779ms 302 
INFO  2018-02-25 01:09:58,356 [6    ] soft.AspNetCore.Hosting.Internal.WebHost - Request starting HTTP/1.1 GET http://localhost:21021/swagger/  
INFO  2018-02-25 01:09:58,386 [6    ] NetCore.StaticFiles.StaticFileMiddleware - Sending file. Request path: '/index.html'. Physical path: 'N/A'
INFO  2018-02-25 01:09:58,399 [6    ] soft.AspNetCore.Hosting.Internal.WebHost - Request finished in 42.411ms 200 text/html
INFO  2018-02-25 01:09:58,418 [10   ] soft.AspNetCore.Hosting.Internal.WebHost - Request starting HTTP/1.1 GET http://localhost:21021/swagger/css/typography.css  
INFO  2018-02-25 01:09:58,452 [6    ] soft.AspNetCore.Hosting.Internal.WebHost - Request starting HTTP/1.1 GET http://localhost:21021/swagger/lib/object-assign-pollyfill.js  
INFO  2018-02-25 01:09:58,453 [11   ] soft.AspNetCore.Hosting.Internal.WebHost - Request starting HTTP/1.1 GET http://localhost:21021/swagger/lib/jquery-1.8.0.min.js  
INFO  2018-02-25 01:09:58,455 [13   ] soft.AspNetCore.Hosting.Internal.WebHost - Request starting HTTP/1.1 GET http://localhost:21021/swagger/css/reset.css  
INFO  2018-02-25 01:09:58,457 [14   ] soft.AspNetCore.Hosting.Internal.WebHost - Request starting HTTP/1.1 GET http://localhost:21021/swagger/css/screen.css  
INFO  2018-02-25 01:09:58,459 [5    ] soft.AspNetCore.Hosting.Internal.WebHost - Request starting HTTP/1.1 GET http://localhost:21021/swagger/lib/jquery.slideto.min.js  
INFO  2018-02-25 01:09:58,463 [10   ] NetCore.StaticFiles.StaticFileMiddleware - The file /css/typography.css was not modified
INFO  2018-02-25 01:09:58,471 [14   ] NetCore.StaticFiles.StaticFileMiddleware - The file /css/screen.css was not modified
INFO  2018-02-25 01:09:58,473 [6    ] NetCore.StaticFiles.StaticFileMiddleware - The file /lib/object-assign-pollyfill.js was not modified
INFO  2018-02-25 01:09:58,480 [13   ] NetCore.StaticFiles.StaticFileMiddleware - The file /css/reset.css was not modified
INFO  2018-02-25 01:09:58,486 [10   ] soft.AspNetCore.Hosting.Internal.WebHost - Request finished in 59.3559ms 304 text/css
INFO  2018-02-25 01:09:58,513 [11   ] NetCore.StaticFiles.StaticFileMiddleware - The file /lib/jquery-1.8.0.min.js was not modified
INFO  2018-02-25 01:09:58,520 [13   ] soft.AspNetCore.Hosting.Internal.WebHost - Request finished in 60.8377ms 304 text/css
INFO  2018-02-25 01:09:58,522 [11   ] soft.AspNetCore.Hosting.Internal.WebHost - Request finished in 94.0206ms 304 application/javascript
INFO  2018-02-25 01:09:58,524 [14   ] soft.AspNetCore.Hosting.Internal.WebHost - Request finished in 51.4443ms 304 text/css
INFO  2018-02-25 01:09:58,526 [5    ] NetCore.StaticFiles.StaticFileMiddleware - The file /lib/jquery.slideto.min.js was not modified
INFO  2018-02-25 01:09:58,528 [6    ] soft.AspNetCore.Hosting.Internal.WebHost - Request finished in 53.7629ms 304 application/javascript
INFO  2018-02-25 01:09:58,537 [10   ] soft.AspNetCore.Hosting.Internal.WebHost - Request starting HTTP/1.1 GET http://localhost:21021/swagger/lib/jquery.ba-bbq.min.js  
INFO  2018-02-25 01:09:58,540 [14   ] soft.AspNetCore.Hosting.Internal.WebHost - Request starting HTTP/1.1 GET http://localhost:21021/swagger/lib/jquery.wiggle.min.js  
INFO  2018-02-25 01:09:58,552 [6    ] soft.AspNetCore.Hosting.Internal.WebHost - Request starting HTTP/1.1 GET http://localhost:21021/swagger/lib/handlebars-4.0.5.js  
INFO  2018-02-25 01:09:58,555 [14   ] NetCore.StaticFiles.StaticFileMiddleware - The file /lib/jquery.wiggle.min.js was not modified
INFO  2018-02-25 01:09:58,557 [5    ] soft.AspNetCore.Hosting.Internal.WebHost - Request finished in 108.5058ms 304 application/javascript
INFO  2018-02-25 01:09:58,559 [13   ] soft.AspNetCore.Hosting.Internal.WebHost - Request starting HTTP/1.1 GET http://localhost:21021/swagger/lib/lodash.min.js  
INFO  2018-02-25 01:09:58,561 [11   ] soft.AspNetCore.Hosting.Internal.WebHost - Request starting HTTP/1.1 GET http://localhost:21021/swagger/lib/backbone-min.js  
INFO  2018-02-25 01:09:58,590 [10   ] NetCore.StaticFiles.StaticFileMiddleware - The file /lib/jquery.ba-bbq.min.js was not modified
INFO  2018-02-25 01:09:58,591 [11   ] NetCore.StaticFiles.StaticFileMiddleware - The file /lib/backbone-min.js was not modified
INFO  2018-02-25 01:09:58,593 [13   ] NetCore.StaticFiles.StaticFileMiddleware - The file /lib/lodash.min.js was not modified
INFO  2018-02-25 01:09:58,597 [14   ] soft.AspNetCore.Hosting.Internal.WebHost - Request finished in 24.8803ms 304 application/javascript
INFO  2018-02-25 01:09:58,613 [11   ] soft.AspNetCore.Hosting.Internal.WebHost - Request finished in 58.7449ms 304 application/javascript
INFO  2018-02-25 01:09:58,614 [10   ] soft.AspNetCore.Hosting.Internal.WebHost - Request finished in 98.7644ms 304 application/javascript
INFO  2018-02-25 01:09:58,616 [6    ] NetCore.StaticFiles.StaticFileMiddleware - The file /lib/handlebars-4.0.5.js was not modified
INFO  2018-02-25 01:09:58,620 [14   ] soft.AspNetCore.Hosting.Internal.WebHost - Request starting HTTP/1.1 GET http://localhost:21021/swagger/lib/highlight.9.1.0.pack.js  
INFO  2018-02-25 01:09:58,624 [13   ] soft.AspNetCore.Hosting.Internal.WebHost - Request finished in 54.8387ms 304 application/javascript
INFO  2018-02-25 01:09:58,626 [11   ] soft.AspNetCore.Hosting.Internal.WebHost - Request starting HTTP/1.1 GET http://localhost:21021/swagger/lib/jsoneditor.min.js  
INFO  2018-02-25 01:09:58,627 [5    ] soft.AspNetCore.Hosting.Internal.WebHost - Request starting HTTP/1.1 GET http://localhost:21021/swagger/swagger-ui.min.js  
INFO  2018-02-25 01:09:58,640 [14   ] NetCore.StaticFiles.StaticFileMiddleware - The file /lib/highlight.9.1.0.pack.js was not modified
INFO  2018-02-25 01:09:58,642 [10   ] soft.AspNetCore.Hosting.Internal.WebHost - Request starting HTTP/1.1 GET http://localhost:21021/swagger/lib/highlight.9.1.0.pack_extended.js  
INFO  2018-02-25 01:09:58,644 [6    ] soft.AspNetCore.Hosting.Internal.WebHost - Request finished in 73.3714ms 304 application/javascript
INFO  2018-02-25 01:09:58,646 [13   ] soft.AspNetCore.Hosting.Internal.WebHost - Request starting HTTP/1.1 GET http://localhost:21021/swagger/lib/marked.js  
INFO  2018-02-25 01:09:58,651 [11   ] NetCore.StaticFiles.StaticFileMiddleware - The file /lib/jsoneditor.min.js was not modified
INFO  2018-02-25 01:09:58,657 [14   ] soft.AspNetCore.Hosting.Internal.WebHost - Request finished in 36.06ms 304 application/javascript
INFO  2018-02-25 01:09:58,661 [5    ] NetCore.StaticFiles.StaticFileMiddleware - The file /swagger-ui.min.js was not modified
INFO  2018-02-25 01:09:58,671 [13   ] NetCore.StaticFiles.StaticFileMiddleware - The file /lib/marked.js was not modified
INFO  2018-02-25 01:09:58,673 [11   ] soft.AspNetCore.Hosting.Internal.WebHost - Request finished in 33.0546ms 304 application/javascript
INFO  2018-02-25 01:09:58,675 [10   ] NetCore.StaticFiles.StaticFileMiddleware - The file /lib/highlight.9.1.0.pack_extended.js was not modified
INFO  2018-02-25 01:09:58,682 [6    ] soft.AspNetCore.Hosting.Internal.WebHost - Request starting HTTP/1.1 GET http://localhost:21021/swagger/lib/swagger-oauth.js  
INFO  2018-02-25 01:09:58,684 [5    ] soft.AspNetCore.Hosting.Internal.WebHost - Request finished in 57.7728ms 304 application/javascript
INFO  2018-02-25 01:09:58,688 [13   ] soft.AspNetCore.Hosting.Internal.WebHost - Request finished in 40.1335ms 304 application/javascript
INFO  2018-02-25 01:09:58,693 [12   ] soft.AspNetCore.Hosting.Internal.WebHost - Request starting HTTP/1.1 GET http://localhost:21021/swagger/images/logo_small.png  
INFO  2018-02-25 01:09:58,695 [10   ] soft.AspNetCore.Hosting.Internal.WebHost - Request finished in 45.7897ms 304 application/javascript
INFO  2018-02-25 01:09:58,705 [6    ] NetCore.StaticFiles.StaticFileMiddleware - The file /lib/swagger-oauth.js was not modified
INFO  2018-02-25 01:09:58,706 [12   ] NetCore.StaticFiles.StaticFileMiddleware - The file /images/logo_small.png was not modified
INFO  2018-02-25 01:09:58,713 [6    ] soft.AspNetCore.Hosting.Internal.WebHost - Request finished in 56.4414ms 304 application/javascript
INFO  2018-02-25 01:09:58,715 [12   ] soft.AspNetCore.Hosting.Internal.WebHost - Request finished in 26.9886ms 304 image/png
INFO  2018-02-25 01:09:58,722 [5    ] soft.AspNetCore.Hosting.Internal.WebHost - Request starting HTTP/1.1 GET http://localhost:21021/swagger/css/print.css  
INFO  2018-02-25 01:09:58,726 [5    ] NetCore.StaticFiles.StaticFileMiddleware - The file /css/print.css was not modified
INFO  2018-02-25 01:09:58,730 [5    ] soft.AspNetCore.Hosting.Internal.WebHost - Request finished in 11.8989ms 304 text/css
INFO  2018-02-25 01:09:58,784 [6    ] soft.AspNetCore.Hosting.Internal.WebHost - Request starting HTTP/1.1 GET http://localhost:21021/swagger/v1/swagger.json  
INFO  2018-02-25 01:09:59,066 [6    ] soft.AspNetCore.Hosting.Internal.WebHost - Request finished in 280.5867ms 200 application/json
INFO  2018-02-25 01:09:59,309 [13   ] soft.AspNetCore.Hosting.Internal.WebHost - Request starting HTTP/1.1 GET http://localhost:21021/swagger/ui/on-complete.js?_=1519506599303  
INFO  2018-02-25 01:09:59,311 [12   ] soft.AspNetCore.Hosting.Internal.WebHost - Request starting HTTP/1.1 GET http://localhost:21021/swagger/ui/abp.js?_=1519506599302  
INFO  2018-02-25 01:09:59,315 [13   ] NetCore.StaticFiles.StaticFileMiddleware - Sending file. Request path: '/swagger/ui/on-complete.js'. Physical path: 'C:\Users\Nick\Documents\Visual Studio 2017\Projects\Boilerplate\Core2X\Plain\3.5.0\aspnet-core\src\Kate.Web.Host\wwwroot\swagger\ui\on-complete.js'
INFO  2018-02-25 01:09:59,317 [12   ] NetCore.StaticFiles.StaticFileMiddleware - Sending file. Request path: '/swagger/ui/abp.js'. Physical path: 'C:\Users\Nick\Documents\Visual Studio 2017\Projects\Boilerplate\Core2X\Plain\3.5.0\aspnet-core\src\Kate.Web.Host\wwwroot\swagger\ui\abp.js'
INFO  2018-02-25 01:09:59,332 [5    ] soft.AspNetCore.Hosting.Internal.WebHost - Request finished in 22.1716ms 200 application/javascript
INFO  2018-02-25 01:09:59,334 [10   ] soft.AspNetCore.Hosting.Internal.WebHost - Request finished in 22.1719ms 200 application/javascript
